Silicon 1.1-SNAPSHOT (f773761b7527)

Silicon finished verification successfully in 4.94s.
Silicon 1.1-SNAPSHOT (f773761b7527)

Silicon finished verification successfully in 5.09s.
Silicon 1.1-SNAPSHOT (f773761b7527)

Silicon finished verification successfully in 4.66s.
Silicon 1.1-SNAPSHOT (f773761b7527)

Silicon finished verification successfully in 4.40s.
Silicon 1.1-SNAPSHOT (f773761b7527)

Silicon finished verification successfully in 4.40s.
Silicon 1.1-SNAPSHOT (f773761b7527)

Silicon finished verification successfully in 5.74s.
Silicon 1.1-SNAPSHOT (f773761b7527)

Silicon finished verification successfully in 6.21s.
Silicon 1.1-SNAPSHOT (f773761b7527)

Silicon finished verification successfully in 6.29s.
Silicon 1.1-SNAPSHOT (f773761b7527)

Silicon finished verification successfully in 5.46s.
Silicon 1.1-SNAPSHOT (f773761b7527)

Silicon finished verification successfully in 5.52s.
Silicon 1.1-SNAPSHOT (f773761b7527)

Silicon finished verification successfully in 6.02s.
Silicon 1.1-SNAPSHOT (f773761b7527)

Silicon finished verification successfully in 6.08s.
Silicon 1.1-SNAPSHOT (f773761b7527)

Silicon finished verification successfully in 6.85s.
Silicon 1.1-SNAPSHOT (f773761b7527)

Silicon finished verification successfully in 5.74s.
Silicon 1.1-SNAPSHOT (f773761b7527)

Silicon finished verification successfully in 5.61s.
Silicon 1.1-SNAPSHOT (f773761b7527)

Silicon finished verification successfully in 5.72s.
Silicon 1.1-SNAPSHOT (f773761b7527)

Silicon finished verification successfully in 5.51s.
Silicon 1.1-SNAPSHOT (f773761b7527)

Silicon finished verification successfully in 6.14s.
Silicon 1.1-SNAPSHOT (f773761b7527)

Silicon finished verification successfully in 5.82s.
Silicon 1.1-SNAPSHOT (f773761b7527)

Silicon finished verification successfully in 5.64s.
Silicon 1.1-SNAPSHOT (f773761b7527)

Silicon finished verification successfully in 6.61s.
Silicon 1.1-SNAPSHOT (f773761b7527)

Silicon finished verification successfully in 5.48s.
Silicon 1.1-SNAPSHOT (f773761b7527)

Silicon finished verification successfully in 5.26s.
Silicon 1.1-SNAPSHOT (f773761b7527)

Silicon finished verification successfully in 5.30s.
Silicon 1.1-SNAPSHOT (f773761b7527)

Silicon finished verification successfully in 6.95s.
Silicon 1.1-SNAPSHOT (f773761b7527)

Silicon finished verification successfully in 5.99s.
Silicon 1.1-SNAPSHOT (f773761b7527)

Silicon finished verification successfully in 6.45s.
Silicon 1.1-SNAPSHOT (f773761b7527)

Silicon finished verification successfully in 6.03s.
Silicon 1.1-SNAPSHOT (f773761b7527)

Silicon finished verification successfully in 5.95s.
Silicon 1.1-SNAPSHOT (f773761b7527)

Silicon finished verification successfully in 5.89s.
Silicon 1.1-SNAPSHOT (f773761b7527)

Silicon finished verification successfully in 6.00s.
Silicon 1.1-SNAPSHOT (f773761b7527)

Silicon finished verification successfully in 5.74s.
Silicon 1.1-SNAPSHOT (f773761b7527)

Silicon finished verification successfully in 5.39s.
Silicon 1.1-SNAPSHOT (f773761b7527)

Silicon finished verification successfully in 6.69s.
Silicon 1.1-SNAPSHOT (f773761b7527)

Silicon finished verification successfully in 5.56s.
Silicon 1.1-SNAPSHOT (f773761b7527)

Silicon finished verification successfully in 5.96s.
Silicon 1.1-SNAPSHOT (f773761b7527)

Silicon finished verification successfully in 6.09s.
Silicon 1.1-SNAPSHOT (f773761b7527)

Silicon finished verification successfully in 5.82s.
Silicon 1.1-SNAPSHOT (f773761b7527)

Silicon finished verification successfully in 7.08s.
Silicon 1.1-SNAPSHOT (f773761b7527)

Silicon finished verification successfully in 5.78s.
Silicon 1.1-SNAPSHOT (f773761b7527)

Silicon finished verification successfully in 5.99s.
Silicon 1.1-SNAPSHOT (f773761b7527)

Silicon finished verification successfully in 6.43s.
Silicon 1.1-SNAPSHOT (f773761b7527)

Silicon finished verification successfully in 6.26s.
Silicon 1.1-SNAPSHOT (f773761b7527)

Silicon finished verification successfully in 5.73s.
Silicon 1.1-SNAPSHOT (f773761b7527)

Silicon finished verification successfully in 6.03s.
Silicon 1.1-SNAPSHOT (f773761b7527)

Silicon finished verification successfully in 6.61s.
Silicon 1.1-SNAPSHOT (f773761b7527)

Silicon finished verification successfully in 6.73s.
Silicon 1.1-SNAPSHOT (f773761b7527)

Silicon finished verification successfully in 6.49s.
Silicon 1.1-SNAPSHOT (f773761b7527)

Silicon finished verification successfully in 5.76s.
Silicon 1.1-SNAPSHOT (f773761b7527)

Silicon finished verification successfully in 6.55s.
5.62078595161438
5.654962539672852
5.291140079498291
4.983418941497803
4.9146728515625
6.194122314453125
6.883543968200684
7.054999828338623
6.028747320175171
5.980344295501709
6.7302024364471436
7.210092782974243
7.458849191665649
6.392861843109131
6.17151951789856
6.33158540725708
6.10818338394165
6.767378330230713
6.924616098403931
6.270008087158203
7.13878607749939
6.001134634017944
5.832827091217041
5.814375162124634
7.681907892227173
6.603269577026367
7.096973657608032
6.529154062271118
6.6407811641693115
6.480493783950806
6.512904644012451
6.254392147064209
5.982205629348755
7.234604835510254
6.069462537765503
6.803205490112305
6.643545389175415
6.46145224571228
7.752885580062866
6.311101675033569
6.717731475830078
7.0042948722839355
6.8599889278411865
6.293386220932007
6.63835334777832
7.133627414703369
7.371297836303711
7.169769287109375
6.366225957870483
7.113442420959473
Max: 7.752885580062866
Min: 4.9146728515625
Avg: 6.509712324142456


real    0m5,616s
user    0m17,101s
sys     0m0,647s

real    0m5,648s
user    0m15,750s
sys     0m0,641s

real    0m5,286s
user    0m16,123s
sys     0m0,593s

real    0m4,977s
user    0m14,992s
sys     0m0,506s

real    0m4,910s
user    0m15,115s
sys     0m0,490s

real    0m6,189s
user    0m18,903s
sys     0m0,756s

real    0m6,877s
user    0m20,256s
sys     0m0,768s

real    0m7,047s
user    0m20,790s
sys     0m0,720s

real    0m6,022s
user    0m17,514s
sys     0m0,709s

real    0m5,975s
user    0m18,011s
sys     0m0,593s

real    0m6,724s
user    0m19,303s
sys     0m0,823s

real    0m7,191s
user    0m21,092s
sys     0m0,791s

real    0m7,452s
user    0m22,296s
sys     0m0,884s

real    0m6,385s
user    0m18,556s
sys     0m0,774s

real    0m6,164s
user    0m18,295s
sys     0m0,695s

real    0m6,326s
user    0m18,092s
sys     0m0,719s

real    0m6,100s
user    0m18,182s
sys     0m0,632s

real    0m6,761s
user    0m19,730s
sys     0m0,769s

real    0m6,908s
user    0m19,724s
sys     0m0,872s

real    0m6,264s
user    0m19,202s
sys     0m0,773s

real    0m7,132s
user    0m20,649s
sys     0m0,781s

real    0m5,995s
user    0m18,381s
sys     0m0,678s

real    0m5,826s
user    0m17,155s
sys     0m0,593s

real    0m5,808s
user    0m17,047s
sys     0m0,648s

real    0m7,673s
user    0m23,307s
sys     0m0,869s

real    0m6,597s
user    0m20,089s
sys     0m0,619s

real    0m7,088s
user    0m21,813s
sys     0m0,814s

real    0m6,523s
user    0m19,530s
sys     0m0,630s

real    0m6,635s
user    0m19,463s
sys     0m0,714s

real    0m6,474s
user    0m19,304s
sys     0m0,757s

real    0m6,505s
user    0m19,813s
sys     0m0,730s

real    0m6,248s
user    0m17,924s
sys     0m0,695s

real    0m5,976s
user    0m17,674s
sys     0m0,724s

real    0m7,229s
user    0m22,089s
sys     0m0,807s

real    0m6,063s
user    0m17,990s
sys     0m0,572s

real    0m6,797s
user    0m18,706s
sys     0m0,632s

real    0m6,637s
user    0m20,036s
sys     0m0,699s

real    0m6,454s
user    0m19,226s
sys     0m0,782s

real    0m7,746s
user    0m22,304s
sys     0m0,811s

real    0m6,305s
user    0m19,043s
sys     0m0,752s

real    0m6,712s
user    0m20,288s
sys     0m0,793s

real    0m6,993s
user    0m20,646s
sys     0m0,797s

real    0m6,854s
user    0m20,481s
sys     0m0,706s

real    0m6,287s
user    0m18,221s
sys     0m0,704s

real    0m6,632s
user    0m19,953s
sys     0m0,773s

real    0m7,127s
user    0m21,803s
sys     0m0,769s

real    0m7,362s
user    0m22,281s
sys     0m0,815s

real    0m7,163s
user    0m22,717s
sys     0m0,796s

real    0m6,360s
user    0m18,267s
sys     0m0,673s

real    0m7,108s
user    0m21,385s
sys     0m0,755s

